VHDL_test_ab_and_bc/simulation/qsim/test_ab_and_bc.msim.vcd
$comment
	File created using the following command:
		vcd file test_ab_and_bc.msim.vcd -direction
$end
$date
	Wed May 06 15:19:34 2020
$end
$version
	ModelSim Version 10.1d
$end
$timescale
	1ps
$end
$scope module test_ab_and_bc_vlg_vec_tst $end
$var reg 1 ! input_A $end
$var reg 1 " input_B $end
$var reg 1 # input_C $end
$var wire 1 $ result $end
$var wire 1 % sampler $end
$scope module i1 $end
$var wire 1 & gnd $end
$var wire 1 ' vcc $end
$var wire 1 ( unknown $end
$var tri1 1 ) devclrn $end
$var tri1 1 * devpor $end
$var tri1 1 + devoe $end
$var wire 1 , ~QUARTUS_CREATED_GND~I_combout $end
$var wire 1 - input_C~input_o $end
$var wire 1 . input_A~input_o $end
$var wire 1 / input_B~input_o $end
$var wire 1 0 result~0_combout $end
$upscope $end
$upscope $end
$enddefinitions $end
#0
$dumpvars
0!
0"
0#
0$
x%
0&
1'
x(
1)
1*
1+
0,
0-
0.
0/
00
$end
#64000
1#
1-
0%
#128000
1"
0#
1/
0-
1%
#192000
1#
1-
0%
10
1$
#256000
1!
0"
0#
1.
0/
0-
1%
00
0$
#320000
1#
1-
0%
#384000
1"
0#
1/
0-
1%
10
1$
#448000
1#
1-
0%
#512000
0!
0"
0#
0.
0/
0-
1%
00
0$
#576000
1#
1-
0%
#640000
1"
0#
1/
0-
1%
#704000
1#
1-
0%
10
1$
#768000
1!
0"
0#
1.
0/
0-
1%
00
0$
#832000
1#
1-
0%
#896000
1"
0#
1/
0-
1%
10
1$
#960000
1#
1-
0%
